RF1	1.2	4
R7E	2.9	8
RGN	2.9	8
RF1	3.4	8
RF1	3.9	11
RA0	5.0	12
RA0	5.7	1
RS5	6.2	7
R7M	6.3	6
RGM	6.3	6
RA1	6.3	6
R7C	6.4	2
RA0	7.5	5
R7C	7.9	4
R7T	8.7	8
RT1	9.2	6
R16	9.4	10
R16	9.5	2
RGP	10.0	8
RF8	10.1	8
R7M	10.50	8
RGM	10.50	8
RA1	10.50	8
RF8	10.6	1
R7M	10.70	7
RGM	10.70	7
RA1	10.70	7
RA5	11.00	11
R7E	11.4	9
RGN	11.4	9
RS5	11.68	9
R7T	11.8	5
RGS	12.2	8
R7T	12.46	9
R16	3.1	5
RGS	13.1	5
R16	3.20	1
RGS	13.7	6
RS5	13.4	5
R17	14.1	4
R7E	14.45	6
RGN	14.45	6
R7T	14.85	11
R7S	14.86	6
RGT	15.79	8
R7T	16.39	7
RA3	16.65	6
RA0	16.69	7
R17	16.8	10
RGP	16.85	10
RA2	16.9	1
RT1	17.64	7
RF1	17.7	7
RS5	18.0	6
RGS	18.64	7
R7P	18.77	5
RGB	19.36	8
RF1	19.44	5
RGP	19.7	9
RS5	20.74	8
RA2	21.39	7
R7T	22.2	4
RT1	22.26	8
R16	2.5	12
R7T	22.8	3
R7P	22.85	3
R16	2.9	11
RA2	24.68	8
RGS	25.66	12
RGP	25.8	3
RA2	25.98	6
RA0	26.0	6
R7T	26.35	12
R7O	26.88	7
RA4	26.88	7
R7M	6.9	5
RGM	26.9	5
RA1	26.9	5
R17	27.0	3
RA0	7.54	8
RGB	27.89	4
R16	18.0	4
RA2	28.66	2
RGP	32.7	1
RGL	33.40	7
RGT	33.8	9
RF1	14.8	6
RGS	34.5	2
R17	34.5	11
RA2	35.4	12
RA0	15.50	10
RA2	35.6	5
RGT	35.98	7
RT1	36.97	4
R7S	37.9	8
RA3	38.45	4
RGT	38.69	12
RGP	39.56	7
RGB	40.37	9
RA3	40.98	7
R7C	41.34	9
R16	11.75	8
RA0	12.5	9
RA3	42.84	5
RGL	43.6	11
R7M	4.17	9
RGM	44.17	9
RA1	44.17	9
RF1	24.4	10
RGP	44.67	2
RA3	44.99	9
RGL	46.16	6
R7O	46.16	6
RA4	46.16	6
R7T	46.20	2
RT1	46.40	1
RGL	47.0	8
R7O	47.0	8
RA4	47.0	8
R17	47.18	9
RGS	47.65	1
R7C	48.00	12
R7M	8.65	11
RGM	48.65	11
RA1	48.65	11
R7M	9.77	10
RGM	49.77	10
RA1	49.77	10
R7C	49.9	8
RS5	50.36	11
RA0	11.7	2
RGT	52.3	11
R7N	52.6	5
RGT	52.86	3
RGT	52.9	10
R17	53.15	2
RT1	53.35	12
RA5	53.46	4
R7E	53.66	2
RGN	53.66	2
RGT	54.3	4
R7P	54.4	4
RGS	54.45	10
RGS	54.85	3
RGL	55.20	1
R7O	55.20	1
RA4	55.20	1
R17	55.36	1
R7C	55.44	3
RGL	55.55	4
R7C	55.88	6
RGB	57.3	5
R7O	57.3	4
RA4	57.3	4
R7P	57.50	12
RGP	57.87	4
RGB	57.94	11
R7M	8.0	2
RGM	58.0	2
RA1	58.0	2
R7E	58.42	4
RGN	58.42	4
R7M	8.6	3
RGM	58.66	3
RA1	58.66	3
RGL	58.80	5
R7O	58.80	5
RA4	58.80	5
R7O	59.56	11
RA4	59.56	11
RT1	59.85	5
RA2	60.76	4
RA2	61.5	9
RGP	62.9	12
RGP	63.50	6
RGL	63.95	2
R7O	63.95	2
RA4	63.95	2
R7S	64.08	3
R16	24.4	7
R7S	64.6	5
R7M	4.80	12
RGM	64.80	12
RA1	64.80	12
R7S	65.3	4
RA0	15.7	4
RGP	65.87	5
R7N	67.3	9
R7S	67.8	12
RF1	18.1	3
RS5	68.55	4
RS5	68.8	2
RA3	69.58	8
RGS	69.60	4
R7S	70.6	11
R7S	71.18	10
RF8	71.55	6
R7C	72.14	5
RF1	22.19	2
R7S	73.0	2
R7M	3.2	1
RGM	73.24	1
RA1	73.24	1
RF8	73.8	9
R7M	5.6	4
RGM	75.6	4
RA1	75.6	4
R7C	77.50	11
R7N	77.18	4
R16	17.48	6
RT1	78.2	10
RT1	79.48	9
RA2	79.89	3
RGP	80.67	11
RA2	80.86	11
RA0	18.94	11
RF8	81.50	5
RA3	82.09	11
RF8	82.5	4
RF8	82.89	11
RF1	13.09	12
RT1	83.2	2
R16	13.50	3
R16	14.37	9
RF8	87.4	3
RA5	88.00	3
RT1	88.66	3
R7S	88.85	7
RGS	89.7	9
RGB	90.00	3
RGL	91.75	9
R7O	91.75	9
RA4	91.75	9
RGL	91.77	10
R7O	91.77	10
RA4	91.77	10
RA5	92.09	12
R17	92.3	8
R7E	94.04	12
RGN	94.04	12
RA0	24.8	3
RA2	96.9	10
RF8	96.6	12
R7S	97.85	1
R7N	98.89	6
R7P	100.2	11
RGS	100.4	11
RS5	101.6	1
RA3	101.56	10
RGL	102.82	12
R7O	102.82	12
RA4	102.82	12
RGN	105.52	1
RA5	105.82	10
R7S	106.3	9
RS5	106.6	10
RS5	107.3	12
RF8	109.48	7
RS5	110.25	3
R7O	110.28	3
RA4	110.28	3
RA3	112.60	3
RT1	113.6	11
RGL	183.7	3
